{
  "uuid": "93614ad0-964b-4c83-8cea-d6b145298e3c-tc-0-1000",
  "name": "DebagleWebSiteTest.PersonalSettingsTest.CheckAccauntCancel(\"tanakocura3@gmail.com\",\"Nata_1234\",\"Because i want it\")",
  "children": [
    "cbe2f232-a497-414c-8204-c87a5a1fa2c5-tr-0-1005"
  ],
  "befores": [
    {
      "name": "Setup",
      "status": "passed",
      "statusDetails": {
        "known": false,
        "muted": false,
        "flaky": false
      },
      "stage": "finished",
      "steps": [],
      "attachments": [],
      "parameters": [],
      "start": 1634843562268,
      "stop": 1634843562268
    }
  ],
  "afters": [],
  "links": [],
  "start": 1634843554041,
  "stop": 1634843562324
}